{
  "@quasar/testing": {
    "harnesses": [
      "unit-jest"
    ]
  },
  "@quasar/testing-unit-jest": {
    "babel": "babelrc",
    "options": [
      "scripts",
      "SFC"
    ]
  },
  "@quasar/dotenv": {
    "env_development": ".env",
    "env_production": ".env",
    "common_root_object": "none",
    "create_env_files": true,
    "add_env_to_gitignore": true
  }
}